simulation/qsim/ELE_DESIGN.msim.vcd
$comment
	File created using the following command:
		vcd file ELE_DESIGN.msim.vcd -direction
$end
$date
	Thu Jul 12 12:53:52 2018
$end
$version
	ModelSim Version 10.1d
$end
$timescale
	1ps
$end
$scope module MotorTest_vlg_vec_tst $end
$var reg 1 ! choose0 $end
$var reg 1 " choose1 $end
$var reg 1 # clk $end
$var reg 1 $ speed0 $end
$var reg 1 % speed1 $end
$var wire 1 & pin1 $end
$var wire 1 ' pin2 $end
$var wire 1 ( pin_name1 $end
$var wire 1 ) pin_name2 $end
$var wire 1 * sampler $end
$scope module i1 $end
$var wire 1 + gnd $end
$var wire 1 , vcc $end
$var wire 1 - unknown $end
$var tri1 1 . devclrn $end
$var tri1 1 / devpor $end
$var tri1 1 0 devoe $end
$var wire 1 1 inst1|counter[5]~28_combout $end
$var wire 1 2 inst1|counter[10]~42_combout $end
$var wire 1 3 inst1|LessThan0~2_combout $end
$var wire 1 4 inst1|LessThan0~3_combout $end
$var wire 1 5 inst1|LessThan0~4_combout $end
$var wire 1 6 inst1|counter[0]~32_combout $end
$var wire 1 7 clk~combout $end
$var wire 1 8 clk~clkctrl_outclk $end
$var wire 1 9 inst|Add0~0_combout $end
$var wire 1 : inst|Add0~1 $end
$var wire 1 ; inst|Add0~2_combout $end
$var wire 1 < inst|Add0~3 $end
$var wire 1 = inst|Add0~4_combout $end
$var wire 1 > inst|Add0~5 $end
$var wire 1 ? inst|Add0~7 $end
$var wire 1 @ inst|Add0~8_combout $end
$var wire 1 A inst|Add0~9 $end
$var wire 1 B inst|Add0~10_combout $end
$var wire 1 C inst|cnt~1_combout $end
$var wire 1 D inst|Add0~11 $end
$var wire 1 E inst|Add0~12_combout $end
$var wire 1 F inst|Add0~13 $end
$var wire 1 G inst|Add0~14_combout $end
$var wire 1 H inst|cnt~2_combout $end
$var wire 1 I inst|Equal0~1_combout $end
$var wire 1 J inst|Add0~15 $end
$var wire 1 K inst|Add0~16_combout $end
$var wire 1 L inst|cnt~3_combout $end
$var wire 1 M inst|Add0~17 $end
$var wire 1 N inst|Add0~18_combout $end
$var wire 1 O inst|Add0~19 $end
$var wire 1 P inst|Add0~21 $end
$var wire 1 Q inst|Add0~22_combout $end
$var wire 1 R inst|Add0~23 $end
$var wire 1 S inst|Add0~25 $end
$var wire 1 T inst|Add0~26_combout $end
$var wire 1 U inst|cnt~4_combout $end
$var wire 1 V inst|Add0~27 $end
$var wire 1 W inst|Add0~28_combout $end
$var wire 1 X inst|cnt~5_combout $end
$var wire 1 Y inst|Add0~20_combout $end
$var wire 1 Z inst|Equal0~2_combout $end
$var wire 1 [ inst|Add0~24_combout $end
$var wire 1 \ inst|Equal0~3_combout $end
$var wire 1 ] inst|Add0~6_combout $end
$var wire 1 ^ inst|cnt~0_combout $end
$var wire 1 _ inst|Equal0~0_combout $end
$var wire 1 ` inst|clk_div_r~0_combout $end
$var wire 1 a inst|clk_div_r~regout $end
$var wire 1 b inst|clk_div_r~clkctrl_outclk $end
$var wire 1 c choose0~combout $end
$var wire 1 d inst1|counter[0]~18_combout $end
$var wire 1 e inst1|counter[4]~27 $end
$var wire 1 f inst1|counter[5]~29 $end
$var wire 1 g inst1|counter[6]~31 $end
$var wire 1 h inst1|counter[7]~36_combout $end
$var wire 1 i choose1~combout $end
$var wire 1 j inst1|PWM_L~1_combout $end
$var wire 1 k inst1|counter[7]~37 $end
$var wire 1 l inst1|counter[8]~39 $end
$var wire 1 m inst1|counter[9]~40_combout $end
$var wire 1 n inst1|counter[9]~41 $end
$var wire 1 o inst1|counter[10]~43 $end
$var wire 1 p inst1|counter[11]~44_combout $end
$var wire 1 q inst1|counter[11]~45 $end
$var wire 1 r inst1|counter[12]~47 $end
$var wire 1 s inst1|counter[13]~48_combout $end
$var wire 1 t inst1|counter[13]~49 $end
$var wire 1 u inst1|counter[14]~50_combout $end
$var wire 1 v inst1|counter[8]~38_combout $end
$var wire 1 w inst1|counter[12]~46_combout $end
$var wire 1 x inst1|LessThan0~0_combout $end
$var wire 1 y inst1|counter[0]~54_combout $end
$var wire 1 z inst1|counter[0]~33_combout $end
$var wire 1 { inst1|counter[14]~51 $end
$var wire 1 | inst1|counter[15]~52_combout $end
$var wire 1 } inst1|counter[6]~30_combout $end
$var wire 1 ~ inst1|counter[0]~16_combout $end
$var wire 1 !! inst1|counter[0]~17_combout $end
$var wire 1 "! inst1|counter[0]~34_combout $end
$var wire 1 #! inst1|counter[0]~35_combout $end
$var wire 1 $! inst1|counter[0]~55_combout $end
$var wire 1 %! inst1|counter[0]~19 $end
$var wire 1 &! inst1|counter[1]~20_combout $end
$var wire 1 '! inst1|counter[1]~21 $end
$var wire 1 (! inst1|counter[2]~22_combout $end
$var wire 1 )! inst1|counter[2]~23 $end
$var wire 1 *! inst1|counter[3]~24_combout $end
$var wire 1 +! inst1|counter[3]~25 $end
$var wire 1 ,! inst1|counter[4]~26_combout $end
$var wire 1 -! inst1|LessThan0~1_combout $end
$var wire 1 .! inst1|LessThan0~5_combout $end
$var wire 1 /! inst1|PWM_L~0_combout $end
$var wire 1 0! inst1|PWM_L~regout $end
$var wire 1 1! inst1|PWM_R~0_combout $end
$var wire 1 2! inst1|PWM_R~regout $end
$var wire 1 3! speed1~combout $end
$var wire 1 4! speed0~combout $end
$var wire 1 5! inst|cnt [14] $end
$var wire 1 6! inst|cnt [13] $end
$var wire 1 7! inst|cnt [12] $end
$var wire 1 8! inst|cnt [11] $end
$var wire 1 9! inst|cnt [10] $end
$var wire 1 :! inst|cnt [9] $end
$var wire 1 ;! inst|cnt [8] $end
$var wire 1 <! inst|cnt [7] $end
$var wire 1 =! inst|cnt [6] $end
$var wire 1 >! inst|cnt [5] $end
$var wire 1 ?! inst|cnt [4] $end
$var wire 1 @! inst|cnt [3] $end
$var wire 1 A! inst|cnt [2] $end
$var wire 1 B! inst|cnt [1] $end
$var wire 1 C! inst|cnt [0] $end
$var wire 1 D! inst1|counter [15] $end
$var wire 1 E! inst1|counter [14] $end
$var wire 1 F! inst1|counter [13] $end
$var wire 1 G! inst1|counter [12] $end
$var wire 1 H! inst1|counter [11] $end
$var wire 1 I! inst1|counter [10] $end
$var wire 1 J! inst1|counter [9] $end
$var wire 1 K! inst1|counter [8] $end
$var wire 1 L! inst1|counter [7] $end
$var wire 1 M! inst1|counter [6] $end
$var wire 1 N! inst1|counter [5] $end
$var wire 1 O! inst1|counter [4] $end
$var wire 1 P! inst1|counter [3] $end
$var wire 1 Q! inst1|counter [2] $end
$var wire 1 R! inst1|counter [1] $end
$var wire 1 S! inst1|counter [0] $end
$upscope $end
$upscope $end
$enddefinitions $end
#0
$dumpvars
1!
0"
0#
1$
1%
0&
0'
1(
1)
x*
0+
1,
x-
1.
1/
10
01
02
03
04
05
06
07
08
19
0:
0;
1<
0=
0>
1?
0@
0A
0B
0C
1D
0E
0F
0G
0H
0I
1J
0K
0L
0M
0N
1O
0P
0Q
1R
0S
0T
0U
1V
0W
0X
0Y
0Z
0[
0\
0]
0^
0_
0`
0a
0b
1c
1d
0e
1f
0g
0h
0i
1j
1k
0l
0m
1n
0o
0p
1q
0r
0s
1t
0u
0v
0w
1x
0y
0z
0{
0|
0}
1~
1!!
1"!
0#!
0$!
0%!
0&!
1'!
0(!
0)!
0*!
1+!
0,!
1-!
0.!
1/!
00!
01!
02!
13!
14!
0C!
0B!
0A!
0@!
0?!
0>!
0=!
0<!
0;!
0:!
09!
08!
07!
06!
05!
0S!
0R!
0Q!
0P!
0O!
0N!
0M!
0L!
0K!
0J!
0I!
0H!
0G!
0F!
0E!
0D!
$end
#1000
1#
17
18
0*
1C!
1:
09
1;
#2000
0#
07
08
1*
#3000
1#
17
18
0*
1B!
0C!
0<
0;
0:
19
1=
1<
1;
0=
#4000
0#
07
08
1*
#5000
1#
17
18
0*
1C!
1:
09
0<
0;
1=
#6000
0#
07
08
1*
#7000
1#
17
18
0*
1A!
0B!
0C!
1>
0=
1<
1;
0:
19
1]
0>
1=
0;
1^
0]
0^
#8000
0#
07
08
1*
#9000
1#
17
18
0*
1C!
1:
09
1;
#10000
0#
07
08
1*
#11000
1#
17
18
0*
1B!
0C!
0<
0;
0:
19
1>
0=
1<
1;
1]
0>
1=
1^
0]
0^
#12000
0#
07
08
1*
#13000
1#
17
18
0*
1C!
1_
1:
09
0<
0;
1>
0=
1]
1^
#14000
0#
07
08
1*
#15000
1#
17
18
0*
1@!
0A!
0B!
0C!
0_
0?
0]
0>
1=
1<
1;
0:
19
0^
1@
1?
1]
0=
0;
0@
1^
#16000
0#
07
08
1*
#17000
1#
17
18
0*
1C!
1:
09
1;
#18000
0#
07
08
1*
#19000
1#
17
18
0*
1B!
0C!
0<
0;
0:
19
1=
1<
1;
0=
#20000
0#
07
08
1*
#21000
1#
17
18
0*
1C!
1:
09
0<
0;
1=
#22000
0#
07
08
1*
#23000
1#
17
18
0*
1A!
0B!
0C!
1>
0=
1<
1;
0:
19
0?
0]
0>
1=
0;
1@
0^
1?
1]
0@
1^
#24000
0#
07
08
1*
#25000
1#
17
18
0*
1C!
1:
09
1;
#26000
0#
07
08
1*
#27000
1#
17
18
0*
1B!
0C!
0<
0;
0:
19
1>
0=
1<
1;
0?
0]
0>
1=
1@
0^
1?
1]
0@
1^
#28000
0#
07
08
1*
#29000
1#
17
18
0*
1C!
1:
09
0<
0;
1>
0=
0?
0]
1@
0^
#30000
0#
07
08
1*
#31000
1#
17
18
0*
0@!
1?!
0A!
0B!
0C!
1?
1]
1A
0@
0>
1=
1<
1;
0:
19
0A
1@
1^
1B
0]
0=
0;
0B
1C
0^
0C
#32000
0#
07
08
1*
#33000
1#
17
18
0*
1C!
1:
09
1;
#34000
0#
07
08
1*
#35000
1#
17
18
0*
1B!
0C!
0<
0;
0:
19
1=
1<
1;
0=
#36000
0#
07
08
1*
#37000
1#
17
18
0*
1C!
1:
09
0<
0;
1=
#38000
0#
07
08
1*
#39000
1#
17
18
0*
1A!
0B!
0C!
1>
0=
1<
1;
0:
19
1]
0>
1=
0;
1^
0]
0^
#40000
0#
07
08
1*
#41000
1#
17
18
0*
1C!
1:
09
1;
#42000
0#
07
08
1*
#43000
1#
17
18
0*
1B!
0C!
0<
0;
0:
19
1>
0=
1<
1;
1]
0>
1=
1^
0]
0^
#44000
0#
07
08
1*
#45000
1#
17
18
0*
1C!
1_
1:
09
0<
0;
1>
0=
1]
1^
#46000
0#
07
08
1*
#47000
1#
17
18
0*
1@!
0A!
0B!
0C!
0_
0?
0]
0>
1=
1<
1;
0:
19
0^
1A
0@
1?
1]
0=
0;
1B
0A
1@
1^
1C
0B
0C
#48000
0#
07
08
1*
#49000
1#
17
18
0*
1C!
1:
09
1;
#50000
0#
07
08
1*
#51000
1#
17
18
0*
1B!
0C!
0<
0;
0:
19
1=
1<
1;
0=
#52000
0#
07
08
1*
#53000
1#
17
18
0*
1C!
1:
09
0<
0;
1=
#54000
0#
07
08
1*
#55000
1#
17
18
0*
1A!
0B!
0C!
1>
0=
1<
1;
0:
19
0?
0]
0>
1=
0;
1A
0@
0^
1?
1]
1B
0A
1@
1^
1C
0B
0C
#56000
0#
07
08
1*
#57000
1#
17
18
0*
1C!
1:
09
1;
#58000
0#
07
08
1*
#59000
1#
17
18
0*
1B!
0C!
0<
0;
0:
19
1>
0=
1<
1;
0?
0]
0>
1=
1A
0@
0^
1?
1]
1B
0A
1@
1^
1C
0B
0C
#60000
0#
07
08
1*
#61000
1#
17
18
0*
1C!
1:
09
0<
0;
1>
0=
0?
0]
1A
0@
0^
1B
1C
#62000
0#
07
08
1*
#63000
1#
17
18
0*
0@!
1>!
0?!
0A!
0B!
0C!
1?
1]
0D
0B
0A
1@
0>
1=
1<
1;
0:
19
0@
1^
1E
0C
1D
1B
0]
0=
0;
0E
1C
0^
#64000
0#
07
08
1*
#65000
1#
17
18
0*
1C!
1:
09
1;
#66000
0#
07
08
1*
#67000
1#
17
18
0*
1B!
0C!
0<
0;
0:
19
1=
1<
1;
0=
#68000
0#
07
08
1*
#69000
1#
17
18
0*
1C!
1:
09
0<
0;
1=
#70000
0#
07
08
1*
#71000
1#
17
18
0*
1A!
0B!
0C!
1>
0=
1<
1;
0:
19
1]
0>
1=
0;
1^
0]
0^
#72000
0#
07
08
1*
#73000
1#
17
18
0*
1C!
1:
09
1;
#74000
0#
07
08
1*
#75000
1#
17
18
0*
1B!
0C!
0<
0;
0:
19
1>
0=
1<
1;
1]
0>
1=
1^
0]
0^
#76000
0#
07
08
1*
#77000
1#
17
18
0*
1C!
1_
1:
09
0<
0;
1>
0=
1]
1^
#78000
0#
07
08
1*
#79000
1#
17
18
0*
1@!
0A!
0B!
0C!
0_
0?
0]
0>
1=
1<
1;
0:
19
0^
1@
1?
1]
0=
0;
0@
1^
#80000
0#
07
08
1*
#81000
1#
17
18
0*
1C!
1:
09
1;
#82000
0#
07
08
1*
#83000
1#
17
18
0*
1B!
0C!
0<
0;
0:
19
1=
1<
1;
0=
#84000
0#
07
08
1*
#85000
1#
17
18
0*
1C!
1:
09
0<
0;
1=
#86000
0#
07
08
1*
#87000
1#
17
18
0*
1A!
0B!
0C!
1>
0=
1<
1;
0:
19
0?
0]
0>
1=
0;
1@
0^
1?
1]
0@
1^
#88000
0#
07
08
1*
#89000
1#
17
18
0*
1C!
1:
09
1;
#90000
0#
07
08
1*
#91000
1#
17
18
0*
1B!
0C!
0<
0;
0:
19
1>
0=
1<
1;
0?
0]
0>
1=
1@
0^
1?
1]
0@
1^
#92000
0#
07
08
1*
#93000
1#
17
18
0*
1C!
1:
09
0<
0;
1>
0=
0?
0]
1@
0^
#94000
0#
07
08
1*
#95000
1#
17
18
0*
0@!
1?!
0A!
0B!
0C!
1?
1]
1A
0@
0>
1=
1<
1;
0:
19
0A
1@
1^
0D
0B
0]
0=
0;
1D
1B
1E
0C
0^
0E
1C
#96000
0#
07
08
1*
#97000
1#
17
18
0*
1C!
1:
09
1;
#98000
0#
07
08
1*
#99000
1#
17
18
0*
1B!
0C!
0<
0;
0:
19
1=
1<
1;
0=
#100000
0#
07
08
1*
#101000
1#
17
18
0*
1C!
1:
09
0<
0;
1=
#102000
0#
07
08
1*
#103000
1#
17
18
0*
1A!
0B!
0C!
1>
0=
1<
1;
0:
19
1]
0>
1=
0;
1^
0]
0^
#104000
0#
07
08
1*
#105000
1#
17
18
0*
1C!
1:
09
1;
#106000
0#
07
08
1*
#107000
1#
17
18
0*
1B!
0C!
0<
0;
0:
19
1>
0=
1<
1;
1]
0>
1=
1^
0]
0^
#108000
0#
07
08
1*
#109000
1#
17
18
0*
1C!
1_
1:
09
0<
0;
1>
0=
1]
1^
#110000
0#
07
08
1*
#111000
1#
17
18
0*
1@!
0A!
0B!
0C!
0_
0?
0]
0>
1=
1<
1;
0:
19
0^
1A
0@
1?
1]
0=
0;
0D
0B
0A
1@
1^
1E
0C
1D
1B
0E
1C
#112000
0#
07
08
1*
#113000
1#
17
18
0*
1C!
1:
09
1;
#114000
0#
07
08
1*
#115000
1#
17
18
0*
1B!
0C!
0<
0;
0:
19
1=
1<
1;
0=
#116000
0#
07
08
1*
#117000
1#
17
18
0*
1C!
1:
09
0<
0;
1=
#118000
0#
07
08
1*
#119000
1#
17
18
0*
1A!
0B!
0C!
1>
0=
1<
1;
0:
19
0?
0]
0>
1=
0;
1A
0@
0^
1?
1]
0D
0B
0A
1@
1^
1E
0C
1D
1B
0E
1C
#120000
0#
07
08
1*
#121000
1#
17
18
0*
1C!
1:
09
1;
#122000
0#
07
08
1*
#123000
1#
17
18
0*
1B!
0C!
0<
0;
0:
19
1>
0=
1<
1;
0?
0]
0>
1=
1A
0@
0^
1?
1]
0D
0B
0A
1@
1^
1E
0C
1D
1B
0E
1C
#124000
0#
07
08
1*
#125000
1#
17
18
0*
1C!
1:
09
0<
0;
1>
0=
0?
0]
1A
0@
0^
0D
0B
1E
0C
#126000
0#
07
08
1*
#127000
1#
17
18
0*
0@!
1=!
0>!
0?!
0A!
0B!
0C!
1?
1]
1F
0E
1D
1B
0A
1@
0>
1=
1<
1;
0:
19
0@
1^
1G
0F
1E
1C
0B
0]
0=
0;
1H
0G
0C
0^
0H
#128000
0#
07
08
1*
#129000
1#
17
18
0*
1C!
1:
09
1;
#130000
0#
07
08
1*
#131000
1#
17
18
0*
1B!
0C!
0<
0;
0:
19
1=
1<
1;
0=
#132000
0#
07
08
1*
#133000
1#
17
18
0*
1C!
1:
09
0<
0;
1=
#134000
0#
07
08
1*
#135000
1#
17
18
0*
1A!
0B!
0C!
1>
0=
1<
1;
0:
19
1]
0>
1=
0;
1^
0]
0^
#136000
0#
07
08
1*
#137000
1#
17
18
0*
1C!
1:
09
1;
#138000
0#
07
08
1*
#139000
1#
17
18
0*
1B!
0C!
0<
0;
0:
19
1>
0=
1<
1;
1]
0>
1=
1^
0]
0^
#140000
0#
07
08
1*
#141000
1#
17
18
0*
1C!
1_
1:
09
0<
0;
1>
0=
1]
1^
#142000
0#
07
08
1*
#143000
1#
17
18
0*
1@!
0A!
0B!
0C!
0_
0?
0]
0>
1=
1<
1;
0:
19
0^
1@
1?
1]
0=
0;
0@
1^
#144000
0#
07
08
1*
#145000
1#
17
18
0*
1C!
1:
09
1;
#146000
0#
07
08
1*
#147000
1#
17
18
0*
1B!
0C!
0<
0;
0:
19
1=
1<
1;
0=
#148000
0#
07
08
1*
#149000
1#
17
18
0*
1C!
1:
09
0<
0;
1=
#150000
0#
07
08
1*
#151000
1#
17
18
0*
1A!
0B!
0C!
1>
0=
1<
1;
0:
19
0?
0]
0>
1=
0;
1@
0^
1?
1]
0@
1^
#152000
0#
07
08
1*
#153000
1#
17
18
0*
1C!
1:
09
1;
#154000
0#
07
08
1*
#155000
1#
17
18
0*
1B!
0C!
0<
0;
0:
19
1>
0=
1<
1;
0?
0]
0>
1=
1@
0^
1?
1]
0@
1^
#156000
0#
07
08
1*
#157000
1#
17
18
0*
1C!
1:
09
0<
0;
1>
0=
0?
0]
1@
0^
#158000
0#
07
08
1*
#159000
1#
17
18
0*
0@!
1?!
0A!
0B!
0C!
1?
1]
1A
0@
0>
1=
1<
1;
0:
19
0A
1@
1^
1B
0]
0=
0;
0B
1C
0^
0C
#160000
0#
07
08
1*
#161000
1#
17
18
0*
1C!
1:
09
1;
#162000
0#
07
08
1*
#163000
1#
17
18
0*
1B!
0C!
0<
0;
0:
19
1=
1<
1;
0=
#164000
0#
07
08
1*
#165000
1#
17
18
0*
1C!
1:
09
0<
0;
1=
#166000
0#
07
08
1*
#167000
1#
17
18
0*
1A!
0B!
0C!
1>
0=
1<
1;
0:
19
1]
0>
1=
0;
1^
0]
0^
#168000
0#
07
08
1*
#169000
1#
17
18
0*
1C!
1:
09
1;
#170000
0#
07
08
1*
#171000
1#
17
18
0*
1B!
0C!
0<
0;
0:
19
1>
0=
1<
1;
1]
0>
1=
1^
0]
0^
#172000
0#
07
08
1*
#173000
1#
17
18
0*
1C!
1_
1:
09
0<
0;
1>
0=
1]
1^
#174000
0#
07
08
1*
#175000
1#
17
18
0*
1@!
0A!
0B!
0C!
0_
0?
0]
0>
1=
1<
1;
0:
19
0^
1A
0@
1?
1]
0=
0;
1B
0A
1@
1^
1C
0B
0C
#176000
0#
07
08
1*
#177000
1#
17
18
0*
1C!
1:
09
1;
#178000
0#
07
08
1*
#179000
1#
17
18
0*
1B!
0C!
0<
0;
0:
19
1=
1<
1;
0=
#180000
0#
07
08
1*
#181000
1#
17
18
0*
1C!
1:
09
0<
0;
1=
#182000
0#
07
08
1*
#183000
1#
17
18
0*
1A!
0B!
0C!
1>
0=
1<
1;
0:
19
0?
0]
0>
1=
0;
1A
0@
0^
1?
1]
1B
0A
1@
1^
1C
0B
0C
#184000
0#
07
08
1*
#185000
1#
17
18
0*
1C!
1:
09
1;
#186000
0#
07
08
1*
#187000
1#
17
18
0*
1B!
0C!
0<
0;
0:
19
1>
0=
1<
1;
0?
0]
0>
1=
1A
0@
0^
1?
1]
1B
0A
1@
1^
1C
0B
0C
#188000
0#
07
08
1*
#189000
1#
17
18
0*
1C!
1:
09
0<
0;
1>
0=
0?
0]
1A
0@
0^
1B
1C
#190000
0#
07
08
1*
#191000
1#
17
18
0*
0@!
1>!
0?!
0A!
0B!
0C!
1?
1]
0D
0B
0A
1@
0>
1=
1<
1;
0:
19
0@
1^
1F
0E
0C
1D
1B
0]
0=
0;
1G
0F
1E
1C
0^
1H
0G
0H
#192000
0#
07
08
1*
#193000
1#
17
18
0*
1C!
1:
09
1;
#194000
0#
07
08
1*
#195000
1#
17
18
0*
1B!
0C!
0<
0;
0:
19
1=
1<
1;
0=
#196000
0#
07
08
1*
#197000
1#
17
18
0*
1C!
1:
09
0<
0;
1=
#198000
0#
07
08
1*
#199000
1#
17
18
0*
1A!
0B!
0C!
1>
0=
1<
1;
0:
19
1]
0>
1=
0;
1^
0]
0^
#200000
0#
07
08
1*
#201000
1#
17
18
0*
1C!
1:
09
1;
#202000
0#
07
08
1*
#203000
1#
17
18
0*
1B!
0C!
0<
0;
0:
19
1>
0=
1<
1;
1]
0>
1=
1^
0]
0^
#204000
0#
07
08
1*
#205000
1#
17
18
0*
1C!
1_
1:
09
0<
0;
1>
0=
1]
1^
#206000
0#
07
08
1*
#207000
1#
17
18
0*
1@!
0A!
0B!
0C!
0_
0?
0]
0>
1=
1<
1;
0:
19
0^
1@
1?
1]
0=
0;
0@
1^
#208000
0#
07
08
1*
#209000
1#
17
18
0*
1C!
1:
09
1;
#210000
0#
07
08
1*
#211000
1#
17
18
0*
1B!
0C!
0<
0;
0:
19
1=
1<
1;
0=
#212000
0#
07
08
1*
#213000
1#
17
18
0*
1C!
1:
09
0<
0;
1=
#214000
0#
07
08
1*
#215000
1#
17
18
0*
1A!
0B!
0C!
1>
0=
1<
1;
0:
19
0?
0]
0>
1=
0;
1@
0^
1?
1]
0@
1^
#216000
0#
07
08
1*
#217000
1#
17
18
0*
1C!
1:
09
1;
#218000
0#
07
08
1*
#219000
1#
17
18
0*
1B!
0C!
0<
0;
0:
19
1>
0=
1<
1;
0?
0]
0>
1=
1@
0^
1?
1]
0@
1^
#220000
0#
07
08
1*
#221000
1#
17
18
0*
1C!
1:
09
0<
0;
1>
0=
0?
0]
1@
0^
#222000
0#
07
08
1*
#223000
1#
17
18
0*
0@!
1?!
0A!
0B!
0C!
1?
1]
1A
0@
0>
1=
1<
1;
0:
19
0A
1@
1^
0D
0B
0]
0=
0;
1D
1B
1F
0E
0C
0^
0F
1E
1C
1G
0G
1H
0H
#224000
0#
07
08
1*
#225000
1#
17
18
0*
1C!
1:
09
1;
#226000
0#
07
08
1*
#227000
1#
17
18
0*
1B!
0C!
0<
0;
0:
19
1=
1<
1;
0=
#228000
0#
07
08
1*
#229000
1#
17
18
0*
1C!
1:
09
0<
0;
1=
#230000
0#
07
08
1*
#231000
1#
17
18
0*
1A!
0B!
0C!
1>
0=
1<
1;
0:
19
1]
0>
1=
0;
1^
0]
0^
#232000
0#
07
08
1*
#233000
1#
17
18
0*
1C!
1:
09
1;
#234000
0#
07
08
1*
#235000
1#
17
18
0*
1B!
0C!
0<
0;
0:
19
1>
0=
1<
1;
1]
0>
1=
1^
0]
0^
#236000
0#
07
08
1*
#237000
1#
17
18
0*
1C!
1_
1:
09
0<
0;
1>
0=
1]
1^
#238000
0#
07
08
1*
#239000
1#
17
18
0*
1@!
0A!
0B!
0C!
0_
0?
0]
0>
1=
1<
1;
0:
19
0^
1A
0@
1?
1]
0=
0;
0D
0B
0A
1@
1^
1F
0E
0C
1D
1B
1G
0F
1E
1C
1H
0G
0H
#240000
0#
07
08
1*
#241000
1#
17
18
0*
1C!
1:
09
1;
#242000
0#
07
08
1*
#243000
1#
17
18
0*
1B!
0C!
0<
0;
0:
19
1=
1<
1;
0=
#244000
0#
07
08
1*
#245000
1#
17
18
0*
1C!
1:
09
0<
0;
1=
#246000
0#
07
08
1*
#247000
1#
17
18
0*
1A!
0B!
0C!
1>
0=
1<
1;
0:
19
0?
0]
0>
1=
0;
1A
0@
0^
1?
1]
0D
0B
0A
1@
1^
1F
0E
0C
1D
1B
1G
0F
1E
1C
1H
0G
0H
#248000
0#
07
08
1*
#249000
1#
17
18
0*
1C!
1:
09
1;
#250000
0#
07
08
1*
#251000
1#
17
18
0*
1B!
0C!
0<
0;
0:
19
1>
0=
1<
1;
0?
0]
0>
1=
1A
0@
0^
1?
1]
0D
0B
0A
1@
1^
1F
0E
0C
1D
1B
1G
0F
1E
1C
1H
0G
0H
#252000
0#
07
08
1*
#253000
1#
17
18
0*
1C!
1:
09
0<
0;
1>
0=
0?
0]
1A
0@
0^
0D
0B
1F
0E
0C
1G
1H
#254000
0#
07
08
1*
#255000
1#
17
18
0*
0@!
1<!
0=!
0>!
0?!
0A!
0B!
0C!
1?
1]
0J
0G
0F
1E
1D
1B
0A
1@
0>
1=
1<
1;
0:
19
0@
1^
1K
0H
1J
1G
0E
1C
0B
0]
0=
0;
1L
0K
1H
0C
0^
0L
#256000
0#
07
08
1*
#257000
1#
17
18
0*
1C!
1:
09
1;
#258000
0#
07
08
1*
#259000
1#
17
18
0*
1B!
0C!
0<
0;
0:
19
1=
1<
1;
0=
#260000
0#
07
08
1*
#261000
1#
17
18
0*
1C!
1:
09
0<
0;
1=
#262000
0#
07
08
1*
#263000
1#
17
18
0*
1A!
0B!
0C!
1>
0=
1<
1;
0:
19
1]
0>
1=
0;
1^
0]
0^
#264000
0#
07
08
1*
#265000
1#
17
18
0*
1C!
1:
09
1;
#266000
0#
07
08
1*
#267000
1#
17
18
0*
1B!
0C!
0<
0;
0:
19
1>
0=
1<
1;
1]
0>
1=
1^
0]
0^
#268000
0#
07
08
1*
#269000
1#
17
18
0*
1C!
1_
1:
09
0<
0;
1>
0=
1]
1^
#270000
0#
07
08
1*
#271000
1#
17
18
0*
1@!
0A!
0B!
0C!
0_
0?
0]
0>
1=
1<
1;
0:
19
0^
1@
1?
1]
0=
0;
0@
1^
#272000
0#
07
08
1*
#273000
1#
17
18
0*
1C!
1:
09
1;
#274000
0#
07
08
1*
#275000
1#
17
18
0*
1B!
0C!
0<
0;
0:
19
1=
1<
1;
0=
#276000
0#
07
08
1*
#277000
1#
17
18
0*
1C!
1:
09
0<
0;
1=
#278000
0#
07
08
1*
#279000
1#
17
18
0*
1A!
0B!
0C!
1>
0=
1<
1;
0:
19
0?
0]
0>
1=
0;
1@
0^
1?
1]
0@
1^
#280000
0#
07
08
1*
#281000
1#
17
18
0*
1C!
1:
09
1;
#282000
0#
07
08
1*
#283000
1#
17
18
0*
1B!
0C!
0<
0;
0:
19
1>
0=
1<
1;
0?
0]
0>
1=
1@
0^
1?
1]
0@
1^
#284000
0#
07
08
1*
#285000
1#
17
18
0*
1C!
1:
09
0<
0;
1>
0=
0?
0]
1@
0^
#286000
0#
07
08
1*
#287000
1#
17
18
0*
0@!
1?!
0A!
0B!
0C!
1?
1]
1A
0@
0>
1=
1<
1;
0:
19
0A
1@
1^
1B
0]
0=
0;
0B
1C
0^
0C
#288000
0#
07
08
1*
#289000
1#
17
18
0*
1C!
1:
09
1;
#290000
0#
07
08
1*
#291000
1#
17
18
0*
1B!
0C!
0<
0;
0:
19
1=
1<
1;
0=
#292000
0#
07
08
1*
#293000
1#
17
18
0*
1C!
1:
09
0<
0;
1=
#294000
0#
07
08
1*
#295000
1#
17
18
0*
1A!
0B!
0C!
1>
0=
1<
1;
0:
19
1]
0>
1=
0;
1^
0]
0^
#296000
0#
07
08
1*
#297000
1#
17
18
0*
1C!
1:
09
1;
#298000
0#
07
08
1*
#299000
1#
17
18
0*
1B!
0C!
0<
0;
0:
19
1>
0=
1<
1;
1]
0>
1=
1^
0]
0^
#300000
0#
07
08
1*
#301000
1#
17
18
0*
1C!
1_
1:
09
0<
0;
1>
0=
1]
1^
#302000
0#
07
08
1*
#303000
1#
17
18
0*
1@!
0A!
0B!
0C!
0_
0?
0]
0>
1=
1<
1;
0:
19
0^
1A
0@
1?
1]
0=
0;
1B
0A
1@
1^
1C
0B
0C
#304000
0#
07
08
1*
#305000
1#
17
18
0*
1C!
1:
09
1;
#306000
0#
07
08
1*
#307000
1#
17
18
0*
1B!
0C!
0<
0;
0:
19
1=
1<
1;
0=
#308000
0#
07
08
1*
#309000
1#
17
18
0*
1C!
1:
09
0<
0;
1=
#310000
0#
07
08
1*
#311000
1#
17
18
0*
1A!
0B!
0C!
1>
0=
1<
1;
0:
19
0?
0]
0>
1=
0;
1A
0@
0^
1?
1]
1B
0A
1@
1^
1C
0B
0C
#312000
0#
07
08
1*
#313000
1#
17
18
0*
1C!
1:
09
1;
#314000
0#
07
08
1*
#315000
1#
17
18
0*
1B!
0C!
0<
0;
0:
19
1>
0=
1<
1;
0?
0]
0>
1=
1A
0@
0^
1?
1]
1B
0A
1@
1^
1C
0B
0C
#316000
0#
07
08
1*
#317000
1#
17
18
0*
1C!
1:
09
0<
0;
1>
0=
0?
0]
1A
0@
0^
1B
1C
#318000
0#
07
08
1*
#319000
1#
17
18
0*
0@!
1>!
0?!
0A!
0B!
0C!
1?
1]
1I
0D
0B
0A
1@
0>
1=
1<
1;
0:
19
0@
1^
0C
1E
1D
1B
0]
0=
0;
0E
1C
0^
#320000
0#
07
08
1*
#321000
1#
17
18
0*
1C!
1:
09
1;
#322000
0#
07
08
1*
#323000
1#
17
18
0*
1B!
0C!
0<
0;
0:
19
1=
1<
1;
0=
#324000
0#
07
08
1*
#325000
1#
17
18
0*
1C!
1:
09
0<
0;
1=
#326000
0#
07
08
1*
#327000
1#
17
18
0*
1A!
0B!
0C!
1>
0=
1<
1;
0:
19
1]
0>
1=
0;
1^
0]
0^
#328000
0#
07
08
1*
